INDEX VERSION 1.129+C:\Users\Maciek\Desktop\studia shit\Java\javafx-1\.metadata\.plugins\org.eclipse.jdt.core
2552863054.index
2694812966.index
3260877587.index
318857592.index
1334412443.index
293692079.index
601282027.index
1079038258.index
71018339.index
692810719.index
3064462347.index
1494953510.index
3778645487.index
3423988565.index
495217312.index
2827973200.index
1075874757.index
3068640910.index
4013218907.index
2137645919.index
